<?xml version="1.0" encoding="utf-8"?>
<!-- Generator: Adobe Illustrator 23.0.1, SVG Export Plug-In . SVG Version: 6.00 Build 0)  -->
<svg version="1.1" id="Шар_1" xmlns="http://www.w3.org/2000/svg" xmlns:xlink="http://www.w3.org/1999/xlink" x="0px" y="0px"
	 viewBox="0 0 640 640" style="enable-background:new 0 0 640 640;" xml:space="preserve">
<style type="text/css">
	.st0{fill:#FFCC00;}
	.st1{fill:#0066CC;}
	.st2{fill:#19BC1D;}
	.st3{clip-path:url(#SVGID_2_);}
	.st4{clip-path:url(#SVGID_4_);}
	.st5{filter:url(#Adobe_OpacityMaskFilter);}
	.st6{clip-path:url(#SVGID_6_);}
</style>
<g>
	<path class="st0" d="M433.6,232.4c-9.3,54.5-56.7,95.9-113.8,95.9s-104.6-41.4-113.9-95.9h-40.2c1.5,11.7,4.3,23.1,8.3,33.9
		c0.2,1.5,0.7,2.9,1.4,4.4l62,136.8h165.2l62-136.8c0.7-1.4,1.2-2.9,1.4-4.4c3.9-10.8,6.8-22.1,8.2-33.9H433.6z"/>
</g>
<g id="Шар_3">
	<path class="st1" d="M164.5,212.8c0,6.6,0.4,13.2,1.2,19.6h40.2c-1.1-6.4-1.7-12.9-1.7-19.6c0-63.8,51.7-115.5,115.5-115.5
		S435.2,149,435.2,212.8c0,6.7-0.6,13.2-1.7,19.6h40.7c0.8-6.4,1.3-13,1.3-19.6c0-85.9-69.7-155.5-155.5-155.5
		S164.5,126.9,164.5,212.8z"/>
</g>
<g id="Шар_4">
	<path class="st2" d="M324.5,579.7l78.1-172.2H237.4l78.1,172.2C317.3,583.6,322.8,583.6,324.5,579.7z"/>
</g>
<g>
	<g>
		<g>
			<defs>
				<path id="SVGID_1_" d="M320,57.3c-85.9,0-155.5,69.6-155.5,155.5c0,18.8,3.3,36.8,9.5,53.5c0.2,1.5,0.7,2.9,1.4,4.4l140.1,309
					c1.8,3.9,7.3,3.9,9.1,0l140.1-309c0.7-1.4,1.2-2.9,1.4-4.4c6.1-16.7,9.5-34.7,9.5-53.5C475.5,126.9,405.8,57.3,320,57.3z
					 M319.8,328.3c-63.8,0-115.5-51.7-115.5-115.5S255.9,97.3,319.8,97.3S435.3,149,435.3,212.8S383.5,328.3,319.8,328.3z"/>
			</defs>
			<clipPath id="SVGID_2_">
				<use xlink:href="#SVGID_1_"  style="overflow:visible;"/>
			</clipPath>
			<g class="st3">
				<g>
					<defs>
						<rect id="SVGID_3_" x="159.5" y="52.3" width="321.1" height="535.3"/>
					</defs>
					<clipPath id="SVGID_4_">
						<use xlink:href="#SVGID_3_"  style="overflow:visible;"/>
					</clipPath>
					<g class="st4">
						<defs>
							<rect id="SVGID_5_" x="159.5" y="52.3" width="321.1" height="535.3"/>
						</defs>
						<clipPath id="SVGID_6_">
							<use xlink:href="#SVGID_5_"  style="overflow:visible;"/>
						</clipPath>
						<defs>
							<filter id="Adobe_OpacityMaskFilter" filterUnits="userSpaceOnUse" x="159.4" y="52" width="321.6" height="535.7">
								<feColorMatrix  type="matrix" values="1 0 0 0 0  0 1 0 0 0  0 0 1 0 0  0 0 0 1 0"/>
							</filter>
						</defs>
						<mask maskUnits="userSpaceOnUse" x="159.4" y="52" width="321.6" height="535.7" id="SVGID_7_">
							<g class="st5">
								<g>
									<defs>
										<rect id="SVGID_8_" x="159.5" y="52.3" width="321.1" height="535.3"/>
									</defs>
									<clipPath id="SVGID_9_" class="st6">
										<use xlink:href="#SVGID_8_"  style="overflow:visible;"/>
									</clipPath>
									<g style="clip-path:url(#SVGID_9_);">
										
											<image style="overflow:visible;" width="670" height="1116" xlink:href="B97FCD4C.jpg"  transform="matrix(0.48 0 0 0.48 159.36 52)">
										</image>
									</g>
								</g>
							</g>
						</mask>
						<g style="clip-path:url(#SVGID_6_);mask:url(#SVGID_7_);">
							
								<image style="overflow:visible;" width="670" height="1116" xlink:href="B97FCD4D.jpg"  transform="matrix(0.48 0 0 0.48 159.36 52)">
							</image>
						</g>
					</g>
				</g>
			</g>
		</g>
	</g>
</g>
</svg>
