<?xml version="1.0" encoding="utf-8"?>
<!-- Generator: Adobe Illustrator 23.0.1, SVG Export Plug-In . SVG Version: 6.00 Build 0)  -->
<svg version="1.1" id="Шар_1" xmlns="http://www.w3.org/2000/svg" xmlns:xlink="http://www.w3.org/1999/xlink" x="0px" y="0px"
	 viewBox="0 0 640 640" style="enable-background:new 0 0 640 640;" xml:space="preserve">
<style type="text/css">
	.st0{fill:#0066CC;}
	.st1{fill:#FFCC00;}
	.st2{fill:#D52B1E;}
	.st3{fill:#FFFFFF;}
	.st4{fill:#0039A6;}
	.st5{fill:none;stroke:#FFFFFF;stroke-width:9;stroke-miterlimit:10;}
	.st6{clip-path:url(#SVGID_2_);}
</style>
<g id="Шар_4">
	<path class="st0" d="M363.1,321.6h79.4l22.3-49.3c0.7-1.4,1.2-2.9,1.4-4.4c6.1-16.7,9.5-34.7,9.5-53.5
		c0-85.9-69.6-155.5-155.5-155.5s-155.5,69.6-155.5,155.5c0,18.8,3.3,36.8,9.5,53.5c0.2,1.5,0.7,2.9,1.4,4.4l22.3,49.3h79"/>
</g>
<path class="st1" d="M276.9,321.6h-79l117.7,259.7c1.8,3.9,7.4,3.9,9.2,0l117.7-259.7h-79.4"/>
<g id="Шар_4_1_">
	<path class="st2" d="M323.5,318.2c11.2-3.9,24.5-12.1,36.8-24c5.1-5.1,29-22.7,37.5-61.5c0.7-3.6,1.2-14,1.2-17.3v-95.5H241v95.4
		c0,3.4,0.4,13.8,1.2,17.3c8.4,38.9,32.3,56.5,37.5,61.5c13.6,13.2,28.4,21.7,40.4,25.1L323.5,318.2z"/>
	<path class="st3" d="M331.7,129h-22.8l2.7,16.4c0.6,3.6,0.8,7.1,0.8,10.8v83.3h15.2V157c0-4.1,0.4-8.1,1.1-12.2L331.7,129z"/>
	<path class="st4" d="M380.7,267.7c-3.9-10.7-11.1-17.9-19.4-17.9c-6.9,0-13.2,5.1-17.3,13.1c-4.6-15.6-13.7-26.3-24.2-26.3
		c-10.4,0-19.4,10.4-24.1,25.7c-4.1-7.7-10.2-12.5-16.9-12.5c-8.2,0-15.4,7.1-19.3,17.7c8.6,12.3,17.4,19.1,20.3,21.9
		c13.6,13.2,28.4,21.7,40.4,25.1l3.5-1.1c11.2-3.9,24.5-12.1,36.8-24C363.5,286.5,372.2,279.9,380.7,267.7z"/>
	<path class="st5" d="M323.5,317.4c11.2-3.9,24.5-12.1,36.8-24c5.1-5.1,29-22.7,37.5-61.5c0.7-3.6,1.2-14,1.2-17.3v-95.4H241v95.4
		c0,3.4,0.4,13.8,1.2,17.3c8.4,38.9,32.3,56.5,37.5,61.5c13.6,13.2,28.4,21.7,40.4,25.1L323.5,317.4z"/>
	<path class="st3" d="M366.9,189.3l-2.4,0.7c-6.4,2.1-13.1,3.1-19.9,3.1h-49.3c-6.3,0-12.5-0.9-18.5-2.7l-3.9-1.1v25.5l2.2-0.7
		c7.2-2.6,14.8-3.9,22.4-3.9h45c8.1,0,16.2,1.5,23.8,4.5l0.7,0.3L366.9,189.3L366.9,189.3z"/>
	<path class="st3" d="M358.7,178.4l-7.8-2.2c-5.9-1.7-11.9-2.5-18-2.5h-25.4c-6.1,0-12.1,0.8-17.9,2.5l-7.9,2.2v-23.2l9.5,2.2
		c4.8,1,9.6,1.6,14.4,1.6h29.1c4.9,0,9.7-0.6,14.4-1.6l9.5-2.2L358.7,178.4L358.7,178.4z"/>
</g>
<g>
	<g>
		<g>
			<defs>
				<path id="SVGID_1_" d="M320.1,58.9c-85.9,0-155.5,69.6-155.5,155.5c0,18.8,3.3,36.8,9.5,53.5c0.2,1.5,0.7,2.9,1.4,4.4l140.1,309
					c1.8,3.9,7.3,3.9,9.1,0l140.1-309c0.7-1.4,1.2-2.9,1.4-4.4c6.1-16.7,9.5-34.7,9.5-53.5C475.6,128.5,406,58.9,320.1,58.9z
					 M319.9,329.9c-63.8,0-115.5-51.7-115.5-115.5S256.1,98.9,319.9,98.9s115.5,51.7,115.5,115.5S383.7,329.9,319.9,329.9z"/>
			</defs>
			<clipPath id="SVGID_2_">
				<use xlink:href="#SVGID_1_"  style="overflow:visible;"/>
			</clipPath>
			<g class="st6">
				<g>
					<defs>
						<rect id="SVGID_3_" x="159.6" y="53.9" width="321.1" height="535.3"/>
					</defs>
					<clipPath id="SVGID_4_">
						<use xlink:href="#SVGID_3_"  style="overflow:visible;"/>
					</clipPath>
					<g style="clip-path:url(#SVGID_4_);">
						
							<image style="overflow:visible;" width="670" height="1117" xlink:href="B1FE964D.jpg"  transform="matrix(0.48 0 0 0.48 159.36 53.44)">
						</image>
					</g>
				</g>
			</g>
		</g>
	</g>
</g>
</svg>
