<?xml version="1.0" encoding="utf-8"?>
<!-- Generator: Adobe Illustrator 23.0.1, SVG Export Plug-In . SVG Version: 6.00 Build 0)  -->
<svg version="1.1" id="Шар_1" xmlns="http://www.w3.org/2000/svg" xmlns:xlink="http://www.w3.org/1999/xlink" x="0px" y="0px"
	 viewBox="0 0 640 640" style="enable-background:new 0 0 640 640;" xml:space="preserve">
<g>
	<g>
		<path d="M613.9,170H116.1c-9.4,0-17.1,9-17.1,20v20c0,11,7.7,20,17.1,20h497.8c9.4,0,17.1-9,17.1-20v-20
			C631,179,623.3,170,613.9,170z"/>
		<path d="M613.9,290H116.1c-9.4,0-17.1,9-17.1,20v20c0,11,7.7,20,17.1,20h497.8c9.4,0,17.1-9,17.1-20v-20
			C631,299,623.3,290,613.9,290z"/>
		<path d="M613.9,410H116.1c-9.4,0-17.1,9-17.1,20v20c0,11,7.7,20,17.1,20h497.8c9.4,0,17.1-9,17.1-20v-20
			C631,419,623.3,410,613.9,410z"/>
	</g>
	<circle cx="39" cy="200" r="30"/>
	<circle cx="39" cy="320" r="30"/>
	<circle cx="39" cy="440" r="30"/>
</g>
</svg>
