<?xml version="1.0" encoding="utf-8"?>
<!-- Generator: Adobe Illustrator 25.0.0, SVG Export Plug-In . SVG Version: 6.00 Build 0)  -->
<svg version="1.1" id="Шар_1" xmlns="http://www.w3.org/2000/svg" xmlns:xlink="http://www.w3.org/1999/xlink" x="0px" y="0px"
	 viewBox="0 0 640 640" style="enable-background:new 0 0 640 640;" xml:space="preserve">
<path d="M573.4,357L111,625c-29.5,17.1-66.3-4.2-66.3-38.2V53.2c0-34,36.7-55.2,66.1-38.3l462.4,265.6
	C602.7,297.5,602.7,340,573.4,357z"/>
</svg>
