<?xml version="1.0" encoding="utf-8"?>
<!-- Generator: Adobe Illustrator 25.0.0, SVG Export Plug-In . SVG Version: 6.00 Build 0)  -->
<svg version="1.1" id="Шар_1" xmlns="http://www.w3.org/2000/svg" xmlns:xlink="http://www.w3.org/1999/xlink" x="0px" y="0px"
	 viewBox="0 0 640 640" style="enable-background:new 0 0 640 640;" xml:space="preserve">
<style type="text/css">
	.st0{fill:#1D1D1B;}
</style>
<g>
	<path class="st0" d="M630.6,132c0-22.1-17.9-39.9-40-39.9L49.3,92c-22.1,0-40,17.9-40,40v364.5c0,22.1,17.9,40,40,40H242
		c8.3,0,15,6.7,15,15c0,7.1,5.8,12.9,12.9,12.9H370c7.1,0,12.9-5.8,12.9-12.9c0-8.3,6.7-15,15-15h191.6c21.9,0,39.7-17.6,40-39.5
		C630.7,412.9,630.7,216.6,630.6,132z M297.5,537.3l-243-33.4c-6.7-0.9-11.8-6.7-11.8-13.5V113.5c0-7.9,7-14.1,14.9-13l246.2,32.1
		c7,0.9,12.3,6.9,12.3,14l0,374.5C316.1,531,307.3,538.6,297.5,537.3z M583.2,503.4l-240.7,32.2c-7.4,1-13.9-4.8-13.9-12.2V147.1
		c0-7.9,5.8-14.7,13.7-15.8L585,97.2c8-1.1,15.2,5.1,15.2,13.2l0.4,373.1C600.6,493.5,593.2,502,583.2,503.4z"/>
	<path class="st0" d="M65.4,220.9l217.4,28.6c2.7,0.4,5.2-1.6,5.6-4.3l0.8-5.7c0.4-2.7-1.6-5.2-4.3-5.6L67.4,205.2
		c-2.7-0.4-5.2,1.6-5.6,4.3l-0.8,5.7C60.7,218,62.6,220.5,65.4,220.9z"/>
	<path class="st0" d="M284.9,171.4L67.5,142.7c-2.7-0.4-5.2,1.6-5.6,4.3l-0.8,5.7c-0.4,2.7,1.6,5.2,4.3,5.6L282.9,187
		c2.7,0.4,5.2-1.6,5.6-4.3l0.8-5.7C289.6,174.2,287.7,171.7,284.9,171.4z"/>
	<path class="st0" d="M65.4,346l217.4,28.6c2.7,0.4,5.2-1.6,5.6-4.3l0.8-5.7c0.4-2.7-1.6-5.2-4.3-5.6L67.5,330.3
		c-2.7-0.4-5.2,1.6-5.6,4.3l-0.8,5.7C60.7,343.1,62.7,345.6,65.4,346z"/>
	<path class="st0" d="M65.4,408.8l217.4,28.6c2.7,0.4,5.2-1.6,5.6-4.3l0.8-5.7c0.4-2.7-1.6-5.2-4.3-5.6L67.5,393.1
		c-2.7-0.4-5.2,1.6-5.6,4.3l-0.8,5.7C60.8,405.9,62.7,408.4,65.4,408.8z"/>
	<path class="st0" d="M65.4,283l217.4,28.6c2.7,0.4,5.2-1.6,5.6-4.3l0.8-5.7c0.4-2.7-1.6-5.2-4.3-5.6L67.4,267.3
		c-2.7-0.4-5.2,1.6-5.6,4.3l-0.8,5.7C60.7,280.1,62.6,282.6,65.4,283z"/>
	<path class="st0" d="M578.1,457.2c-0.4-2.7-2.9-4.7-5.6-4.3l-217.4,28.6c-2.7,0.4-4.7,2.9-4.3,5.6l0.8,5.7c0.4,2.7,2.9,4.7,5.6,4.3
		l217.4-28.6c2.7-0.4,4.7-2.9,4.3-5.6L578.1,457.2z"/>
	<path class="st0" d="M578.1,394.7c-0.4-2.7-2.9-4.7-5.6-4.3l-217.4,28.6c-2.7,0.4-4.7,2.9-4.3,5.6l0.8,5.7c0.4,2.7,2.9,4.7,5.6,4.3
		l217.4-28.6c2.7-0.4,4.7-2.9,4.3-5.6L578.1,394.7z"/>
	<path class="st0" d="M351.5,180.1c0.4,2.7,2.9,4.7,5.6,4.3l217.4-28.6c2.7-0.4,4.7-2.9,4.3-5.6l-0.8-5.7c-0.4-2.7-2.9-4.7-5.6-4.3
		l-217.4,28.6c-2.7,0.4-4.7,2.9-4.3,5.6L351.5,180.1z"/>
	<path class="st0" d="M578.1,207c-0.4-2.7-2.9-4.7-5.6-4.3l-217.4,28.6c-2.7,0.4-4.7,2.9-4.3,5.6l0.8,5.7c0.4,2.7,2.9,4.7,5.6,4.3
		l217.4-28.6c2.7-0.4,4.7-2.9,4.3-5.6L578.1,207z"/>
	<path class="st0" d="M351.5,367.6c0.4,2.7,2.9,4.7,5.6,4.3l217.4-28.6c2.7-0.4,4.7-2.9,4.3-5.6l-0.8-5.7c-0.4-2.7-2.9-4.7-5.6-4.3
		l-217.4,28.6c-2.7,0.4-4.7,2.9-4.3,5.6L351.5,367.6z"/>
	<path class="st0" d="M284.9,484.2L67.5,455.6c-2.7-0.4-5.2,1.6-5.6,4.3l-0.8,5.7c-0.4,2.7,1.6,5.2,4.3,5.6l217.4,28.6
		c2.7,0.4,5.2-1.6,5.6-4.3l0.8-5.7C289.6,487.1,287.6,484.6,284.9,484.2z"/>
	<path class="st0" d="M578.1,269.1c-0.4-2.7-2.9-4.7-5.6-4.3l-217.4,28.6c-2.7,0.4-4.7,2.9-4.3,5.6l0.8,5.7c0.4,2.7,2.9,4.7,5.6,4.3
		l217.4-28.6c2.7-0.4,4.7-2.9,4.3-5.6L578.1,269.1z"/>
</g>
</svg>
