<?xml version="1.0" encoding="utf-8"?>
<!-- Generator: Adobe Illustrator 25.2.0, SVG Export Plug-In . SVG Version: 6.00 Build 0)  -->
<svg version="1.1" id="Шар_1" xmlns="http://www.w3.org/2000/svg" xmlns:xlink="http://www.w3.org/1999/xlink" x="0px" y="0px"
	 viewBox="0 0 640 640" style="enable-background:new 0 0 640 640;" xml:space="preserve">
<path d="M485.8,489.2h-45c-2.8,0-5-2.2-5-5V29c0-11-9-20-20-20h-20l0,0H252.5c-6.1-0.2-12.2,0.3-18.1,1.3
	c-24.4,4-46.3,17.2-64.9,39.2c-18.9,22.3-24.4,44.6-28.5,60.9c-5,20.1-7.4,39.3-6.7,54.1c-0.6,14.9,1.7,34,6.7,54.1
	c4,16.3,9.5,38.6,28.5,60.9c18.7,22,40.5,35.2,64.9,39.2c6,1,12,1.4,18.1,1.3H327c4,0,6.4,4.4,4.2,7.7L154.3,600.1
	c-8.6,13.3,0.9,30.9,16.8,30.9h23.8c6.8,0,13.1-3.4,16.8-9.1l154.9-238.4c2.7-4.2,9.2-2.3,9.2,2.7v98.1c0,2.8-2.2,5-5,5h-45
	c-11,0-20,9-20,20v20c0,11,9,20,20,20h45c2.8,0,5,2.2,5,5V611c0,11,9,20,20,20h20c11,0,20-9,20-20v-56.8c0-2.8,2.2-5,5-5h45
	c11,0,20-9,20-20v-20C505.8,498.2,496.8,489.2,485.8,489.2z M252.1,260h-0.9c-2.3,0.1-4.7-0.1-7-0.5c-15.1-2.5-25.2-14.4-29-18.8
	c-9.8-11.5-12.8-23.6-15.9-36.4c-5.4-21.9-5.2-34.6-5-38l0.1-1.8l-0.1-1.8c-0.2-3.4-0.4-16,5-38c3.2-12.8,6.2-24.9,15.9-36.4
	c3.8-4.5,13.9-16.3,29-18.8c2.3-0.4,4.6-0.5,7-0.5h0.5h119.1c2.8,0,5,2.2,5,5v181c0,2.8-2.2,5-5,5H252.1z"/>
</svg>
