<?xml version="1.0" encoding="utf-8"?>
<!-- Generator: Adobe Illustrator 23.0.1, SVG Export Plug-In . SVG Version: 6.00 Build 0)  -->
<svg version="1.1" id="Шар_1" xmlns="http://www.w3.org/2000/svg" xmlns:xlink="http://www.w3.org/1999/xlink" x="0px" y="0px"
	 viewBox="0 0 640 640" style="enable-background:new 0 0 640 640;" xml:space="preserve">
<style type="text/css">
	.st0{fill:#B82828;}
	.st1{fill:#FFFFFF;stroke:#000000;stroke-width:5;stroke-miterlimit:10;}
	.st2{fill:#FFD700;}
	.st3{clip-path:url(#SVGID_2_);}
</style>
<g>
	<path class="st0" d="M320.2,58.9c-85.9,0-155.5,69.6-155.5,155.5c0,18.8,3.3,36.8,9.5,53.5c0.2,1.5,0.7,2.9,1.4,4.4l140.1,309
		c1.8,3.9,7.3,3.9,9.1,0l140.1-309c0.7-1.4,1.2-2.9,1.4-4.4c6.1-16.7,9.5-34.7,9.5-53.5C475.7,128.5,406.1,58.9,320.2,58.9z"/>
</g>
<path class="st1" d="M411.2,146.4c2.7-2.7,2.7-7,0-9.6l-5.1-5.1v-0.4h-0.4l-4.2-4.2c-2.7-2.7-7-2.7-9.6,0l-3.1,3.1
	c-0.6,0.6-1.5,1-2.4,1h-49.2c-0.9,0-1.8-0.3-2.4-1l-9-9c-2.7-2.7-7-2.7-9.6,0l-9,9c-0.6,0.6-1.5,1-2.4,1h-51.2c-0.9,0-1.8-0.3-2.4-1
	l-3.1-3.1c-2.7-2.7-7-2.7-9.6,0l-9.6,9.6c-2.7,2.7-2.7,7,0,9.6l6.1,6.1c0.6,0.6,1,1.5,1,2.4V234c0,47.1,38.1,85.2,85.2,85.2l0,0
	c47.1,0,85.2-38.1,85.2-85.2v-81.1c0-0.9,0.3-1.8,1-2.4L411.2,146.4z"/>
<rect x="242.3" y="215.4" transform="matrix(0.7071 -0.7071 0.7071 0.7071 -61.3199 290.4986)" class="st2" width="155.4" height="7.8"/>
<g>
	<g>
		<g>
			<defs>
				<path id="SVGID_1_" d="M320.2,58.9c-85.9,0-155.5,69.6-155.5,155.5c0,18.8,3.3,36.8,9.5,53.5c0.2,1.5,0.7,2.9,1.4,4.4l140.1,309
					c1.8,3.9,7.3,3.9,9.1,0l140.1-309c0.7-1.4,1.2-2.9,1.4-4.4c6.1-16.7,9.5-34.7,9.5-53.5C475.7,128.5,406.1,58.9,320.2,58.9z
					 M320,329.9c-63.8,0-115.5-51.7-115.5-115.5S256.2,98.9,320,98.9s115.5,51.7,115.5,115.5S383.8,329.9,320,329.9z"/>
			</defs>
			<clipPath id="SVGID_2_">
				<use xlink:href="#SVGID_1_"  style="overflow:visible;"/>
			</clipPath>
			<g class="st3">
				<g>
					<defs>
						<rect id="SVGID_3_" x="159.7" y="53.9" width="321.1" height="535.3"/>
					</defs>
					<clipPath id="SVGID_4_">
						<use xlink:href="#SVGID_3_"  style="overflow:visible;"/>
					</clipPath>
					<g style="clip-path:url(#SVGID_4_);">
						
							<image style="overflow:visible;" width="670" height="1117" xlink:href="C411B517.jpg"  transform="matrix(0.48 0 0 0.48 159.36 53.44)">
						</image>
					</g>
				</g>
			</g>
		</g>
	</g>
</g>
</svg>
